"1" + 2 + 0       - "120"  контекация
"1" - 1 + 2       - 2  знак минус преобразует первый элемент в число и дальше идут числовые операции
true + false      - 1  все значения преобразуются в числовые 1 + 0 = 1
10 / "5"          - 2  преобразуется к численному виду
"2" * "3"         - 6  преобразуется к численному виду
4 + 5 + "px"      - "9px" первые 2 преобразуется к численному виду, а потом результат преобразуется к строковому виду
"$" + 4 + 5       - "$45" контекация
"42" - 2          - 40 преобразуется к численному виду
"4px" - 2         - NaN первый параметр нельзя преобразовать к числу
7 / 0             - Infinity деление на 0
"-9 \n" + 5       - "-9\n5" контекация
"-9 \n" - 5       - -14 преобразуется к численному виду
5 && 2            - 2   вычисляет первый аргумент - он равен true, а значит возвращает правый аргумент
2 && 5            - 5   аналогично
5 || 0            - 5   возвращает первый аргумент, тк он true
0 || 5            - 5   возвращает второй аргумент, тк первый false
null + 1          - 1   null преобразуется к нулю
undefined + 1     - NaN undefined преобразуется к NaN
null == "\n0\n"   - false, при проверки на равенство null равен undefined, но никакому другому значению
+null == +"\n0\n" - true, аргументы преобразуются к численным выражениям